{
    "sub_topics": [
        {
            "name" : "Search zones",
            "authors" : [ { "name" :"Jim" }, { "name" : "Osas" } ],
            "section" : [
                {
                    "name" : "controlled vocabularies"
                },
                {
                    "name" : "supporting OU 3rd party tools"
                },
                {
                    "name" : "analytics"
                }
            ]
        }
    ]
}
