Link to bursar's office site: https://www.etsu.edu/bf/bursar/tuitioninfo/grad_fees.php

This link provides all the below information for both in-state and out-of-state.  I see no reason to separate these links on the computing website.

Credit 			In State	    	Program 	Total 			Out of State			Total 
Hours  			Maintenance Fee		Service Fee*	In State		Tuition				Out of State
 	 	 	 	 	 
1	               422.00	                 85.00	       507.00	                      751.00	              1,258.00
2	               844.00	                170.00	     1,014.00	                  1,502.00	              2,516.00
3	               1,266.00	                255.00	     1,521.00	                  2,253.00	              3,774.00
4	               1,688.00	                340.00	     2,028.00	                  3,004.00	              5,032.00
5	               2,110.00	                425.00	     2,535.00	                  3,755.00	              6,290.00
6	               2,532.00	                510.00	     3,042.00	                  4,506.00	              7,548.00
7	               2,954.00	                595.00	     3,549.00	                  5,257.00	              8,806.00
8	               3,376.00	                677.50	     4,053.50	                  6,008.00	           10,061.50
9	               3,798.00	                677.50	     4,475.50	                  6,759.00	           11,234.50
10	               4,220.00	                677.50	     4,897.50	                  7,510.00	           12,407.50
11	               4,304.00	                677.50	     4,981.50	                  7,661.00	           12,642.50
12	               4,388.00	                677.50	     5,065.50	                  7,812.00	           12,877.50
13	               4,472.00	                677.50	     5,149.50	                  7,963.00	           13,112.50
14	               4,556.00	                677.50	     5,233.50	                  8,114.00	           13,347.50
15	               4,640.00	                677.50	     5,317.50	                  8,265.00	           13,582.50
16	               4,724.00	                677.50	     5,401.50	                  8,416.00	           13,817.50
17	               4,808.00	                677.50	     5,485.50	                  8,567.00	           14,052.50
18	               4,892.00	                677.50	     5,569.50	                  8,718.00	           14,287.50
19	               4,976.00	                677.50	     5,653.50	                  8,869.00	           14,522.50
20	               5,060.00	                677.50	     5,737.50	                  9,020.00	           14,757.50
21	               5,144.00	                677.50	     5,821.50	                  9,171.00	           14,992.50
22	               5,228.00	                677.50	     5,905.50	                  9,322.00	           15,227.50
23	               5,312.00	                677.50	     5,989.50	                  9,473.00	           15,462.50
 	 	 	 	 	 